micro alengarik 1       2.3315  1.6138  2.5400
micro asor      1       3.4029  5.7304  2.5400
micro fayo      1       11.1841 3.3754  2.5400
micro gigalum   1       6.4491  0.4688  2.5400
micro simelap   1       7.5611  4.6086  2.5400
micro skerryvore        1       4.8304  3.3261  2.9300
micro uataluk   1       11.4361 6.2281  2.5400





